<?xml version="1.0" encoding="iso-8859-1"?><!-- Generator: Adobe Illustrator 19.0.0, SVG Export Plug-In . SVG Version: 6.00 Build 0)  -->
<svg height="30" viewBox="0 0 20 20" width="30" xmlns="http://www.w3.org/2000/svg">
    <circle cx="9.9" cy="6.4" fill="none" r="4.4" stroke="#000" stroke-width="1.1" />
    <path d="M1.5,19 C2.3,14.5 5.8,11.2 10,11.2 C14.2,11.2 17.7,14.6 18.5,19.2" fill="none"
        stroke="#000" stroke-width="1.1" />
</svg>